[
  {
    "text": "About",
    "url": "/editor/windows/"
  },
  {
    "text": "Downloads",
    "url": "/editor/windows/downloads/"
  },
  {
    "text": "GitLab project",
    "url": "https://gitlab.com/gotofile/gotoedit-windows"
  }
]